{
    "comparatorFields": ["periodo"],
    "keepDuplicity": "first",
    "collection": "",
    "rules": [
        "rename_columns(dataframe, {'Período': 'periodo', 'REG ': 'REG'})",
        "remove_columns(dataframe, ['Unnamed: 15'])"
    ],
    "query_find": {},
    "mongo_method_baseok": "",
    "validate": {
        "periodo" : [["isDate"], ["notNull"]],
        "REG" : [["isString"], ["lenEqualFour"], ["notNull"]],
        "NOME" : [["isString"], ["lenMax100"], ["notNull"]],
        "CPF" : [["isString"], ["lenEqualEleven"], ["notNull"]],
        "CRC" : [["isString"], ["lenMax15"], ["notNull"]],
        "CNPJ" : [["isString"], ["lenEqualFourteen"]],
        "CEP" : [["isString"], ["lenEqualEight"]],
        "END" : [["isString"], ["lenMax60"]],
        "NUM" : [["isString"], ["lenMax255"]],
        "COMPL" : [["isString"], ["lenMax60"]],
        "BAIRRO" : [["isString"], ["lenMax60"]],
        "FONE" : [["isString"], ["lenMax11"]],
        "FAX" : [["isString"], ["lenMax11"]],
        "EMAIL" : [["isString"], ["lenMax255"]],
        "COD_MUN" : [["isString"], ["lenEqualSeven"]],
        "hashID": [["notNull"]]
    }
}