{
    "comparatorFields": ["REG", "COD_PART", "NOME", "COD_PAIS", "CNPJ", "CPF", "IE", "COD_MUN", "SUFRAMA", "END", "NUM", "COMPL", "BAIRRO"],
    "keepDuplicity": "first",
    "collection": "",
    "rules": [
        "remove_characters(dataframe, 'CNPJ', ['.', '/', '-'])",
        "remove_characters(dataframe, 'IE', ['.', '/', '-'])",
        "add_zero_left(dataframe, 'CNPJ', 14)",
        "add_zero_left(dataframe, 'REG', 4)"
    ],
    "query_find": {},
    "mongo_method_baseok": "",
    "validate": {
        "REG" : [["isString"], ["lenEqualFour"], ["notNull"]],
        "COD_PART" : [["isString"], ["lenMax60"], ["notNull"]],
        "NOME" : [["isString"], ["lenMax100"], ["notNull"]],
        "COD_PAIS" : [["isString"], ["lenMax5"], ["notNull"]],
        "CNPJ" : [["isString"], ["lenEqualFourteen"]],
        "CPF" : [["isString"], ["lenEqualEleven"]],
        "IE" : [["isString"], ["lenMax14"]],
        "COD_MUN" : [["isString"], ["lenEqualSeven"]],
        "SUFRAMA" : [["isString"], ["lenEqualNine"]],
        "END" : [["isString"], ["lenMax60"]],
        "NUM" : [["isString"], ["lenMax255"]],
        "COMPL" : [["isString"], ["lenMax60"]],
        "BAIRRO" : [["isString"], ["lenMax60"]],
        "hashID": [["notNull"]]
    }
}