{
    "comparatorFields": ["periodo"],
    "keepDuplicity": "first",
    "collection": "",
    "rules": [
        "rename_columns(dataframe, {'Período': 'periodo', 'REG ': 'REG'})"
    ],
    "query_find": {},
    "mongo_method_baseok": "",
    "validate": {
        "periodo" : [["isDate"], ["notNull"]],
        "REG" : [["isString"], ["lenEqualFour"], ["notNull"]],
        "COD_INC_TRIB" : [["isString"], ["lenEqualOne"], ["notNull"]],
        "IND_APRO_CRED" : [["isString"], ["lenEqualOne"]],
        "COD_TIPO_CONT" : [["isString"], ["lenEqualOne"]],
        "IND_REG_CUM" : [["isString"], ["lenEqualOne"]],
        "hashID": [["notNull"]]
    }
}