{
    "comparatorFields": ["periodo"],
    "keepDuplicity": "first",
    "rules": [
        "rename_columns(dataframe, {'Período': 'periodo'})"
    ],
   "validate": {
      "periodo" : [["isDate"], ["notNull"]],
      "REG" : [["isString"], ["lenEqualFour"], ["notNull"]],
      "QTD_LIN_A" : [["isString"], ["lenMax255"], ["notNull"]],
      "hashID": [["notNull"]]
  }
}