{
    "comparatorFields": ["compet_mov", "F010_REG", "F010_CNPJ", "F100_REG", "F100_IND_OPER", "F100_IND_OPER", "F100_IND_OPER", "F100_IND_OPER", "F100_COD_PART", "F100_COD_ITEM", "F100_DT_OPER", "F100_VL_OPER", "F100_CST_PIS", "F100_VL_BC_PIS", "F100_ALIQ_PIS", "F100_VL_PIS", "F100_CST_COFINS", "F100_VL_BC_COFINS", "F100_ALIQ_COFINS", "F100_VL_COFINS", "F100_NAT_BC_CRED", "F100_IND_ORIG_CRED", "F100_COD_CTA", "F100_COD_CCUS", "F100_DESC_DOC_OPER"],
    "keepDuplicity": "first",
    "rules": [
       "change_type_column(dataframe, ['F100_VL_OPER', 'F100_VL_BC_PIS', 'F100_ALIQ_PIS', 'F100_VL_PIS', 'F100_VL_BC_COFINS', 'F100_ALIQ_COFINS', 'F100_VL_COFINS'], float)",
       "text_to_date(dataframe, 'compet_mov', '%Y%m')",
       "add_zero_left(dataframe, 'F010_CNPJ', 14)",
       "add_zero_left(dataframe, 'F100_CST_PIS', 2)",
       "add_zero_left(dataframe, 'F100_CST_COFINS', 2)",
       "add_zero_left(dataframe, 'F100_DT_OPER', 8)"
    ],
   "validate": {
      "compet_mov" : [["isDate"], ["notNull"]],
      "F010_REG" : [["isString"], ["lenEqualFour"], ["notNull"]],
      "F010_CNPJ" : [["isString"], ["lenEqualFourteen"], ["notNull"]],
      "F100_REG" : [["isString"], ["lenEqualFour"], ["notNull"]],
      "F100_IND_OPER" : [["isString"], ["lenEqualOne"], ["notNull"]],
      "F100_COD_PART" : [["isString"], ["lenMax60"]],
      "F100_COD_ITEM" : [["isString"], ["lenMax60"]],
      "F100_DT_OPER" : [["isString"], ["lenEqualEight"], ["notNull"]],
      "F100_VL_OPER" : [["isDecimal"], ["notNull"]],
      "F100_CST_PIS" : [["isString"], ["lenEqualTwo"], ["notNull"]],
      "F100_VL_BC_PIS" : [["isDecimal"]],
      "F100_ALIQ_PIS" : [["isDecimal"]],
      "F100_VL_PIS" : [["isDecimal"]],
      "F100_CST_COFINS" : [["isString"], ["lenEqualTwo"], ["notNull"]],
      "F100_VL_BC_COFINS" : [["isDecimal"]],
      "F100_ALIQ_COFINS" : [["isDecimal"]],
      "F100_VL_COFINS" : [["isDecimal"]],
      "F100_NAT_BC_CRED" : [["isString"], ["lenEqualTwo"]],
      "F100_IND_ORIG_CRED" : [["isString"], ["lenEqualOne"]],
      "F100_COD_CTA" : [["isString"], ["lenMax255"]],
      "F100_COD_CCUS" : [["isString"], ["lenMax255"]],
      "F100_DESC_DOC_OPER" : [["isString"]],
      "hashID": [["notNull"]]
  }
}