{
    "comparatorFields": ["periodo", "REG", "REG_BLC", "REG_BLC", "QTD_REG_BLC"],
    "keepDuplicity": false,
    "rules": [
        "rename_columns(dataframe, {'Período': 'periodo'})",
        "remove_columns(dataframe, ['Unnamed: 4', 'Unnamed: 5', 'Unnamed: 6', 'Unnamed: 7', 'Unnamed: 8', 'Unnamed: 9', 'Unnamed: 10', 'Unnamed: 11', 'Unnamed: 12', 'Unnamed: 13'])"
    ],
    "validate": {
        "periodo" : [["isDate"], ["notNull"]],
        "REG" : [["isString"], ["lenEqualFour"], ["notNull"]],
        "REG_BLC" : [["isString"], ["lenMax4"], ["notNull"]],
        "QTD_REG_BLC" : [["isString"], ["lenMax255"], ["notNull"]],
        "hashID": [["notNull"]]
    }
}