{
    "comparatorFields": ["periodo"],
    "keepDuplicity": false,
    "collection": "",
    "rules": [
        "rename_columns(dataframe, from_to_columns={'Período': 'periodo'})",
        "change_type_column(dataframe, ['VL_CRED_APU', 'VL_CRED_EXT_APU', 'VL_TOT_CRED_APU', 'VL_CRED_DESC_PA_ANT', 'VL_CRED_PER_PA_ANT', 'VL_CRED_PER_EFD', 'VL_CRED_DCOMP_EFD', 'VL_CRED_TRANS', 'VL_CRED_OUT', 'SLD_CRED_FIM', 'VL_CRED_DCOMP_PA_ANT'], float)",
        "date_format(dataframe, 'PER_APU_CRED', 'MMYYYY')"
    ],
    "query_find": {},
    "mongo_method_baseok": "",
    "validate": {
        "periodo" : [["notNull"]],
        "REG": [["notNull"], ["isString"], ["lenEqualFour"]],
        "PER_APU_CRED": [["notNull"], ["isString"], ["lenEqualSix"], ["onlyNumbers"]],
        "ORIG_CRED": [["notNull"], ["isString"], ["lenEqualTwo"]],
        "CNPJ_SUC": [["none"], ["isString"], ["lenEqualFourteen"]],
        "COD_CRED": [["notNull"], ["isString"], ["lenEqualThree"]],
        "VL_CRED_APU": [["notNull"], ["isDecimal"]],
        "VL_CRED_EXT_APU": [["none"], ["isDecimal"]],
        "VL_TOT_CRED_APU": [["notNull"], ["isDecimal"]],
        "VL_CRED_DESC_PA_ANT": [["notNull"], ["isDecimal"]],
        "VL_CRED_PER_PA_ANT": [["none"], ["isDecimal"]],
        "VL_CRED_DCOMP_PA_ANT": [["none"], ["isDecimal"]],
        "SD_CRED_DISP_EFD": [["notNull"], ["isString"]],
        "VL_CRED_DESC_EFD": [["none"], ["isString"]],
        "VL_CRED_PER_EFD": [["none"], ["isDecimal"]],
        "VL_CRED_DCOMP_EFD": [["none"], ["isDecimal"]],
        "VL_CRED_TRANS": [["none"], ["isDecimal"]],
        "VL_CRED_OUT": [["none"], ["isDecimal"]],
        "SLD_CRED_FIM": [["none"], ["isDecimal"]],
        "hashID": [["notNull"]]
    }
}