{
    "comparatorFields": ["periodo"],
    "keepDuplicity": false,
    "collection": "",
    "rules": [
        "rename_columns(dataframe, from_to_columns={'Período': 'periodo'})",
        "change_type_column(dataframe, ['VL_RET_APU', 'VL_RET_DED', 'VL_RET_PER', 'VL_RET_DCOMP', 'SLD_RET'], float)",
        "date_format(dataframe, 'PR_REC_RET', 'MMYYYY')"
    ],
    "query_find": {},
    "mongo_method_baseok": "",
    "validate": {
        "periodo": [["notNull"]],
        "REG": [["notNull"], ["lenEqualFour"], ["isString"]],
        "IND_NAT_RET": [["notNull"], ["lenEqualTwo"], ["isString"]],
        "PR_REC_RET": [["notNull"], ["lenEqualSix"], ["isString"], ["onlyNumbers"]],
        "VL_RET_APU": [["notNull"], ["isDecimal"]],
        "VL_RET_DED": [["notNull"], ["isDecimal"]],
        "VL_RET_PER": [["notNull"], ["isDecimal"]],
        "VL_RET_DCOMP": [["notNull"], ["isDecimal"]],
        "SLD_RET": [["notNull"], ["isDecimal"]],
        "hashID": [["notNull"]]
    }
}