{
    "comparatorFields": ["periodo"],
    "keepDuplicity": "first",
    "rules": [
      "rename_columns(dataframe, {'Período': 'periodo'})",
      "change_type_column(dataframe, ['periodo'], datetime)",
      "change_type_column(dataframe, ['M510_VL_AJ'], float)",
      "date_format(dataframe, 'M510_DT_REF', 'DDMMYYYY')"
    ],
   "validate": {
      "periodo" : [["isDate"], ["notNull"]],
      "M500_REG" : [["isString"], ["lenMax4"]],
      "M510_REG" : [["isString"], ["lenEqualFour"], ["notNull"]],
      "M510_IND_AJ" : [["isString"], ["lenEqualOne"], ["notNull"]],
      "M510_VL_AJ" : [["isDecimal"], ["notNull"]],
      "M510_COD_AJ" : [["isString"], ["lenEqualTwo"], ["notNull"]],
      "M510_NUM_DOC" : [["isString"], ["lenMax255"]],
      "M510_DESCR_AJ" : [["isString"], ["lenMax255"]],
      "M510_DT_REF" : [["isString"], ["lenEqualEight"]],
      "hashID": [["notNull"]]
  }
}