{
    "comparatorFields": ["periodo"],
    "keepDuplicity": "first",
    "rules": [
      "rename_columns(dataframe, {'Período': 'periodo'})",
      "change_type_column(dataframe, ['periodo'], datetime)",
      "change_type_column(dataframe, ['M625_DET_VALOR_AJ', 'M625_DET_BC_CRED', 'M625_DET_ALIQ'], float)",
      "date_format(dataframe, 'M625_DT_OPER_AJ', 'DDMMYYYY')"
    ],
   "validate": {
      "periodo" : [["isDate"], ["notNull"]],
      "M600_REG" : [["isString"], ["lenMax4"]],
      "M610_REG" : [["isString"], ["lenMax4"]],
      "M615_REG" : [["isString"], ["lenMax4"]],
      "M660_REG" : [["isString"], ["lenMax4"]],
      "M625_REG" : [["isString"], ["lenEqualFour"], ["notNull"]],
      "M625_DET_VALOR_AJ" : [["isDecimal"], ["notNull"]],
      "M625_CST_COFINS" : [["isString"], ["lenEqualTwo"]],
      "M625_DET_BC_CRED" : [["isDecimal"]],
      "M625_DET_ALIQ" : [["isDecimal"]],
      "M625_DT_OPER_AJ" : [["isString"], ["lenEqualEight"], ["notNull"]],
      "M625_DESC_AJ" : [["isString"], ["lenMax255"]],
      "M625_COD_CTA" : [["isString"], ["lenMax255"]],
      "M625_INFO_COMPL" : [["isString"], ["lenMax255"]],
      "hashID": [["notNull"]]
  }
}