{
    "comparatorFields": ["periodo"],
    "keepDuplicity": "first",
    "rules": [
      "rename_columns(dataframe, {'Período': 'periodo'})",
      "change_type_column(dataframe, ['periodo'], datetime)",
      "change_type_column(dataframe, ['M615_VL_AJ_BC'], float)",
      "date_format(dataframe, 'M615_DT_REF', 'DDMMYYYY')"
    ],
    "validate": {
      "periodo" : [["isDate"], ["notNull"]],
      "M600_REG" : [["isString"], ["lenMax4"]],
      "M610_REG" : [["isString"], ["lenMax4"]],
      "M615_REG" : [["isString"], ["lenEqualFour"], ["notNull"]],
      "M615_IND_AJ_BC" : [["isString"], ["lenEqualOne"], ["notNull"]],
      "M615_VL_AJ_BC" : [["isDecimal"], ["notNull"]],
      "M615_COD_AJ_BC" : [["isString"], ["lenEqualTwo"], ["notNull"]],
      "M615_NUM_DOC" : [["isString"], ["lenMax255"]],
      "M615_DESCR_AJ_BC" : [["isString"], ["lenMax255"]],
      "M615_DT_REF" : [["isString"], ["lenEqualEight"]],
      "M615_COD_CTA" : [["isString"], ["lenMax255"]],
      "M615_CNPJ" : [["isString"], ["lenEqualFourteen"], ["notNull"]],
      "M615_INFO_COMPL" : [["isString"], ["lenMax255"]],
      "hashID": [["notNull"]]
  }
}