{
    "comparatorFields": ["periodo", "C010_REG", "C010_CNPJ", "C010_IND_ESCRI", "C100_REG", "C100_IND_OPER", "C100_IND_EMIT", "C100_COD_PART", "C100_COD_MOD", "C100_COD_SIT", "C100_SER", "C100_NUM_DOC", "C100_CHV_NFE", "C100_DT_DOC", "C100_DT_E_S", "C100_VL_DOC", "C100_IND_PGTO", "C100_VL_DESC", "C100_VL_ABAT_NT", "C100_VL_MERC", "C100_IND_FRT", "C100_VL_FRT", "C100_VL_SEG", "C100_VL_OUT_DA", "C100_VL_BC_ICMS", "C100_VL_ICMS", "C100_VL_BC_ICMS_ST", "C100_VL_ICMS_ST", "C100_VL_IPI", "C100_VL_PIS", "C100_VL_COFINS", "C100_VL_PIS_ST", "C100_VL_COFINS_ST", "C170_REG", "C170_NUM_ITEM", "C170_COD_ITEM", "C170_DESCR_COMPL", "C170_QTD", "C170_UNID", "C170_VL_ITEM", "C170_VL_DESC", "C170_IND_MOV", "C170_CST_ICMS", "C170_CFOP", "C170_COD_NAT", "C170_VL_BC_ICMS", "C170_ALIQ_ICMS", "C170_VL_ICMS", "C170_VL_BC_ICMS_ST", "C170_ALIQ_ST", "C170_VL_ICMS_ST", "C170_IND_APUR", "C170_CST_IPI", "C170_COD_ENQ", "C170_VL_BC_IPI", "C170_ALIQ_IPI", "C170_VL_IPI", "C170_CST_PIS", "C170_VL_BC_PIS", "C170_ALIQ_PIS", "C170_QUANT_BC_PIS", "C170_ALIQ_PIS_QUANT", "C170_VL_PIS", "C170_CST_COFINS", "C170_VL_BC_COFINS", "C170_ALIQ_COFINS", "C170_QUANT_BC_COFINS", "C170_ALIQ_COFINS_QUANT", "C170_VL_COFINS", "C170_COD_CTA"],
    "keepDuplicity": "first",
    "rules": [
        "rename_columns(dataframe, {'Periodo': 'periodo'})",
        "text_to_date(dataframe, 'periodo', '%m%Y')",
        "add_zero_left(dataframe, 'C010_CNPJ', 14)",
        "add_zero_left(dataframe, 'C100_COD_SIT', 2)",
        "add_zero_left(dataframe, 'C170_CST_ICMS', 3)",
        "add_zero_left(dataframe, 'C170_NUM_ITEM', 3)",
        "remove_characters(dataframe, ['C170_ALIQ_COFINS_QUANT', 'C170_QUANT_BC_COFINS', 'C170_ALIQ_PIS_QUANT', 'C170_QUANT_BC_PIS', 'C170_VL_ICMS_ST', 'C170_ALIQ_ST', 'C170_VL_BC_ICMS_ST', 'C170_ALIQ_ICMS', 'C170_VL_DESC', 'C100_VL_COFINS_ST', 'C100_VL_PIS_ST', 'C100_VL_IPI', 'C100_VL_ICMS_ST', 'C100_VL_BC_ICMS_ST'], '-')",
        "change_type_column(dataframe, ['C170_VL_COFINS', 'C170_ALIQ_COFINS_QUANT', 'C170_QUANT_BC_COFINS', 'C170_ALIQ_COFINS', 'C170_VL_BC_COFINS', 'C170_VL_PIS', 'C170_ALIQ_PIS_QUANT', 'C170_QUANT_BC_PIS', 'C170_ALIQ_PIS', 'C170_VL_BC_PIS', 'C170_VL_IPI', 'C170_ALIQ_IPI', 'C170_VL_BC_IPI', 'C170_VL_ICMS_ST', 'C170_ALIQ_ST', 'C170_VL_BC_ICMS_ST', 'C170_VL_ICMS', 'C170_ALIQ_ICMS', 'C170_VL_BC_ICMS', 'C170_VL_DESC', 'C170_VL_ITEM', 'C170_QTD', 'C100_VL_COFINS_ST', 'C100_VL_PIS_ST', 'C100_VL_COFINS', 'C100_VL_PIS', 'C100_VL_IPI', 'C100_VL_ICMS_ST', 'C100_VL_BC_ICMS_ST', 'C100_VL_ICMS', 'C100_VL_BC_ICMS', 'C100_VL_OUT_DA', 'C100_VL_SEG', 'C100_VL_FRT', 'C100_VL_MERC', 'C100_VL_ABAT_NT', 'C100_VL_DESC', 'C100_VL_DOC'], float)"
    ],
    "validate": {
        "periodo" : [["isDate"], ["notNull"]],
        "C010_REG" : [["isString"], ["lenEqualFour"], ["notNull"]],
        "C010_CNPJ" : [["isString"], ["lenEqualFourteen"], ["notNull"]],
        "C010_IND_ESCRI" : [["isString"], ["lenEqualOne"]],
        "C100_REG" : [["isString"], ["lenEqualFour"], ["notNull"]],
        "C100_IND_OPER" : [["isString"], ["lenEqualOne"], ["notNull"]],
        "C100_IND_EMIT" : [["isString"], ["lenEqualOne"], ["notNull"]],
        "C100_COD_PART" : [["isString"], ["lenMax60"], ["notNull"]],
        "C100_COD_MOD" : [["isString"], ["lenEqualTwo"], ["notNull"]],
        "C100_COD_SIT" : [["isString"], ["lenEqualTwo"], ["notNull"]],
        "C100_SER" : [["isString"], ["lenMax3"]],
        "C100_NUM_DOC" : [["isString"], ["lenMax9"], ["notNull"]],
        "C100_CHV_NFE" : [["isString"], ["lenEqualFortyFour"]],
        "C100_DT_DOC" : [["isString"], ["lenEqualEight"], ["notNull"]],
        "C100_DT_E_S" : [["isString"], ["lenEqualEight"]],
        "C100_VL_DOC" : [["isDecimal"], ["notNull"]],
        "C100_IND_PGTO" : [["isString"], ["lenEqualOne"], ["notNull"]],
        "C100_VL_DESC" : [["isDecimal"]],
        "C100_VL_ABAT_NT" : [["isDecimal"]],
        "C100_VL_MERC" : [["isDecimal"]],
        "C100_IND_FRT" : [["isString"], ["lenEqualOne"], ["notNull"]],
        "C100_VL_FRT" : [["isDecimal"]],
        "C100_VL_SEG" : [["isDecimal"]],
        "C100_VL_OUT_DA" : [["isDecimal"]],
        "C100_VL_BC_ICMS" : [["isDecimal"]],
        "C100_VL_ICMS" : [["isDecimal"]],
        "C100_VL_BC_ICMS_ST" : [["isDecimal"]],
        "C100_VL_ICMS_ST" : [["isDecimal"]],
        "C100_VL_IPI" : [["isDecimal"]],
        "C100_VL_PIS" : [["isDecimal"]],
        "C100_VL_COFINS" : [["isDecimal"]],
        "C100_VL_PIS_ST" : [["isDecimal"]],
        "C100_VL_COFINS_ST" : [["isDecimal"]],
        "C170_REG" : [["isString"], ["lenMax4"], ["notNull"]],
        "C170_NUM_ITEM" : [["isString"], ["lenMax3"], ["notNull"]],
        "C170_COD_ITEM" : [["isString"], ["lenMax60"], ["notNull"]],
        "C170_DESCR_COMPL" : [["isString"], ["lenMax255"]],
        "C170_QTD" : [["isDecimal"]],
        "C170_UNID" : [["isString"], ["lenMax6"]],
        "C170_VL_ITEM" : [["isDecimal"], ["notNull"]],
        "C170_VL_DESC" : [["isDecimal"]],
        "C170_IND_MOV" : [["isString"], ["lenEqualOne"]],
        "C170_CST_ICMS" : [["isString"], ["lenEqualThree"]],
        "C170_CFOP" : [["isString"], ["lenEqualFour"], ["notNull"]],
        "C170_COD_NAT" : [["isString"], ["lenMax10"]],
        "C170_VL_BC_ICMS" : [["isDecimal"]],
        "C170_ALIQ_ICMS" : [["isDecimal"], ["lenMax6"]],
        "C170_VL_ICMS" : [["isDecimal"]],
        "C170_VL_BC_ICMS_ST" : [["isDecimal"]],
        "C170_ALIQ_ST" : [["isDecimal"], ["lenMax6"]],
        "C170_VL_ICMS_ST" : [["isDecimal"]],
        "C170_IND_APUR" : [["isString"], ["lenEqualOne"]],
        "C170_CST_IPI" : [["isString"], ["lenEqualTwo"]],
        "C170_COD_ENQ" : [["isString"], ["lenEqualThree"]],
        "C170_VL_BC_IPI" : [["isDecimal"]],
        "C170_ALIQ_IPI" : [["isDecimal"], ["lenMax6"]],
        "C170_VL_IPI" : [["isDecimal"]],
        "C170_CST_PIS" : [["isString"], ["lenEqualTwo"], ["notNull"]],
        "C170_VL_BC_PIS" : [["isDecimal"]],
        "C170_ALIQ_PIS" : [["isDecimal"], ["lenMax8"]],
        "C170_QUANT_BC_PIS" : [["isDecimal"]],
        "C170_ALIQ_PIS_QUANT" : [["isDecimal"]],
        "C170_VL_PIS" : [["isDecimal"]],
        "C170_CST_COFINS" : [["isString"], ["lenEqualTwo"], ["notNull"]],
        "C170_VL_BC_COFINS" : [["isDecimal"]],
        "C170_ALIQ_COFINS" : [["isDecimal"], ["lenMax8"]],
        "C170_QUANT_BC_COFINS" : [["isDecimal"]],
        "C170_ALIQ_COFINS_QUANT" : [["isDecimal"]],
        "C170_VL_COFINS" : [["isDecimal"]],
        "C170_COD_CTA" : [["isString"], ["lenMax255"]],
        "hashID": [["notNull"]]
    }
}