{
    "comparatorFields": ["periodo"],
    "keepDuplicity": "first",
    "rules": [
        "rename_columns(dataframe, {'Período': 'periodo'})",
        "change_type_column(dataframe, ['periodo'], datetime)"
    ],
    "validate": {
        "periodo" : [["isDate"], ["notNull"]],
        "REG" : [["isString"], ["lenEqualFour"], ["notNull"]],
        "IND_MOV" : [["isString"], ["lenEqualOne"], ["notNull"]],
        "hashID": [["notNull"]]
    }
}